<?xml version="1.0" encoding="UTF-8" standalone="no"?>
<!-- Created with Inkscape (http://www.inkscape.org/) -->

<svg
   xmlns:dc="http://purl.org/dc/elements/1.1/"
   xmlns:cc="http://creativecommons.org/ns#"
   xmlns:rdf="http://www.w3.org/1999/02/22-rdf-syntax-ns#"
   xmlns:svg="http://www.w3.org/2000/svg"
   xmlns="http://www.w3.org/2000/svg"
   xmlns:sodipodi="http://sodipodi.sourceforge.net/DTD/sodipodi-0.dtd"
   xmlns:inkscape="http://www.inkscape.org/namespaces/inkscape"
   id="svg3039"
   version="1.1"
   inkscape:version="0.48.1 r9760"
   width="543"
   height="93.000008"
   sodipodi:docname="quads.svg"
   inkscape:export-filename="/media/common/projects/ai/doc/quads.png"
   inkscape:export-xdpi="73.209999"
   inkscape:export-ydpi="73.209999">
  <metadata
     id="metadata3045">
    <rdf:RDF>
      <cc:Work
         rdf:about="">
        <dc:format>image/svg+xml</dc:format>
        <dc:type
           rdf:resource="http://purl.org/dc/dcmitype/StillImage" />
        <dc:title></dc:title>
      </cc:Work>
    </rdf:RDF>
  </metadata>
  <defs
     id="defs3043" />
  <sodipodi:namedview
     pagecolor="#ffffff"
     bordercolor="#666666"
     borderopacity="1"
     objecttolerance="10"
     gridtolerance="10000"
     guidetolerance="10"
     inkscape:pageopacity="0"
     inkscape:pageshadow="2"
     inkscape:window-width="1920"
     inkscape:window-height="978"
     id="namedview3041"
     showgrid="true"
     inkscape:snap-from-guide="false"
     inkscape:zoom="2.4041631"
     inkscape:cx="227.9893"
     inkscape:cy="71.963475"
     inkscape:window-x="0"
     inkscape:window-y="34"
     inkscape:window-maximized="1"
     inkscape:current-layer="layer4"
     fit-margin-top="0"
     fit-margin-left="0"
     fit-margin-right="0"
     fit-margin-bottom="0">
    <inkscape:grid
       type="xygrid"
       id="grid3936"
       empspacing="5"
       visible="true"
       enabled="true"
       snapvisiblegridlinesonly="true" />
  </sodipodi:namedview>
  <g
     inkscape:groupmode="layer"
     id="layer3"
     inkscape:label="Layer3"
     transform="translate(-66.999992,-104.99998)">
    <rect
       style="fill:#ffffff;fill-opacity:1;stroke:#000000;stroke-width:3;stroke-linecap:round;stroke-linejoin:round;stroke-miterlimit:4;stroke-opacity:1;stroke-dasharray:none;stroke-dashoffset:0"
       id="rect4251"
       width="50"
       height="45"
       x="68.499992"
       y="106.49998" />
    <rect
       style="fill:#ffffff;fill-opacity:1;stroke:#000000;stroke-width:3;stroke-linecap:round;stroke-linejoin:round;stroke-miterlimit:4;stroke-opacity:1;stroke-dasharray:none;stroke-dashoffset:0"
       id="rect4251-1"
       width="50"
       height="45"
       x="68.499992"
       y="151.49998" />
    <rect
       style="fill:#ffffff;fill-opacity:1;stroke:#000000;stroke-width:3;stroke-linecap:round;stroke-linejoin:round;stroke-miterlimit:4;stroke-opacity:1;stroke-dasharray:none;stroke-dashoffset:0"
       id="rect4251-5"
       width="50"
       height="45"
       x="118.49999"
       y="151.49998" />
    <rect
       style="fill:#ffffff;fill-opacity:1;stroke:#000000;stroke-width:3;stroke-linecap:round;stroke-linejoin:round;stroke-miterlimit:4;stroke-opacity:1;stroke-dasharray:none;stroke-dashoffset:0"
       id="rect4251-6"
       width="50"
       height="45"
       x="118.49999"
       y="106.49999" />
    <rect
       style="fill:#ffffff;fill-opacity:1;stroke:#000000;stroke-width:3;stroke-linecap:round;stroke-linejoin:round;stroke-miterlimit:4;stroke-opacity:1;stroke-dasharray:none;stroke-dashoffset:0"
       id="rect4251-9"
       width="50"
       height="45"
       x="178.5"
       y="106.49998" />
    <rect
       style="fill:#ffffff;fill-opacity:1;stroke:#000000;stroke-width:3;stroke-linecap:round;stroke-linejoin:round;stroke-miterlimit:4;stroke-opacity:1;stroke-dasharray:none;stroke-dashoffset:0"
       id="rect4251-1-7"
       width="50"
       height="45"
       x="178.5"
       y="151.49998" />
    <rect
       style="fill:#ffffff;fill-opacity:1;stroke:#000000;stroke-width:3;stroke-linecap:round;stroke-linejoin:round;stroke-miterlimit:4;stroke-opacity:1;stroke-dasharray:none;stroke-dashoffset:0"
       id="rect4251-5-5"
       width="50"
       height="45"
       x="228.5"
       y="151.49998" />
    <rect
       style="fill:#ffffff;fill-opacity:1;stroke:#000000;stroke-width:3;stroke-linecap:round;stroke-linejoin:round;stroke-miterlimit:4;stroke-opacity:1;stroke-dasharray:none;stroke-dashoffset:0"
       id="rect4251-6-2"
       width="50"
       height="45"
       x="228.5"
       y="106.49998" />
    <rect
       style="fill:#ffffff;fill-opacity:1;stroke:#000000;stroke-width:3;stroke-linecap:round;stroke-linejoin:round;stroke-miterlimit:4;stroke-opacity:1;stroke-dasharray:none;stroke-dashoffset:0"
       id="rect4251-2"
       width="50"
       height="45"
       x="288.5"
       y="106.49998" />
    <rect
       style="fill:#ffffff;fill-opacity:1;stroke:#000000;stroke-width:3;stroke-linecap:round;stroke-linejoin:round;stroke-miterlimit:4;stroke-opacity:1;stroke-dasharray:none;stroke-dashoffset:0"
       id="rect4251-1-8"
       width="50"
       height="45"
       x="288.5"
       y="151.49998" />
    <rect
       style="fill:#ffffff;fill-opacity:1;stroke:#000000;stroke-width:3;stroke-linecap:round;stroke-linejoin:round;stroke-miterlimit:4;stroke-opacity:1;stroke-dasharray:none;stroke-dashoffset:0"
       id="rect4251-5-2"
       width="50"
       height="45"
       x="338.5"
       y="151.49998" />
    <rect
       style="fill:#ffffff;fill-opacity:1;stroke:#000000;stroke-width:3;stroke-linecap:round;stroke-linejoin:round;stroke-miterlimit:4;stroke-opacity:1;stroke-dasharray:none;stroke-dashoffset:0"
       id="rect4251-6-1"
       width="50"
       height="45"
       x="338.5"
       y="106.5" />
    <rect
       style="fill:#ffffff;fill-opacity:1;stroke:#000000;stroke-width:3;stroke-linecap:round;stroke-linejoin:round;stroke-miterlimit:4;stroke-opacity:1;stroke-dasharray:none;stroke-dashoffset:0"
       id="rect4251-9-5"
       width="50"
       height="45"
       x="398.5"
       y="106.49998" />
    <rect
       style="fill:#ffffff;fill-opacity:1;stroke:#000000;stroke-width:3;stroke-linecap:round;stroke-linejoin:round;stroke-miterlimit:4;stroke-opacity:1;stroke-dasharray:none;stroke-dashoffset:0"
       id="rect4251-1-7-4"
       width="50"
       height="45"
       x="398.5"
       y="151.49997" />
    <rect
       style="fill:#ffffff;fill-opacity:1;stroke:#000000;stroke-width:3;stroke-linecap:round;stroke-linejoin:round;stroke-miterlimit:4;stroke-opacity:1;stroke-dasharray:none;stroke-dashoffset:0"
       id="rect4251-5-5-4"
       width="50"
       height="45"
       x="448.5"
       y="151.49997" />
    <rect
       style="fill:#ffffff;fill-opacity:1;stroke:#000000;stroke-width:3;stroke-linecap:round;stroke-linejoin:round;stroke-miterlimit:4;stroke-opacity:1;stroke-dasharray:none;stroke-dashoffset:0"
       id="rect4251-6-2-3"
       width="50"
       height="45"
       x="448.5"
       y="106.49998" />
    <path
       sodipodi:type="arc"
       style="fill:#000000;fill-opacity:1;stroke:#000000;stroke-width:3;stroke-linecap:round;stroke-linejoin:round;stroke-miterlimit:4;stroke-opacity:1;stroke-dasharray:none;stroke-dashoffset:0"
       id="path4285-3"
       sodipodi:cx="87.5"
       sodipodi:cy="102.5"
       sodipodi:rx="12.5"
       sodipodi:ry="12.5"
       d="M 100,102.5 C 100,109.40356 94.403559,115 87.5,115 80.596441,115 75,109.40356 75,102.5 75,95.596441 80.596441,90 87.5,90 c 6.897952,0 12.492067,5.587692 12.499992,12.48564 L 87.5,102.5 z"
       sodipodi:start="0"
       sodipodi:end="6.2820364"
       transform="translate(225.99999,26.499986)" />
    <path
       sodipodi:type="arc"
       style="fill:#000000;fill-opacity:1;stroke:#000000;stroke-width:3;stroke-linecap:round;stroke-linejoin:round;stroke-miterlimit:4;stroke-opacity:1;stroke-dasharray:none;stroke-dashoffset:0"
       id="path4285-6-1-7"
       sodipodi:cx="87.5"
       sodipodi:cy="102.5"
       sodipodi:rx="12.5"
       sodipodi:ry="12.5"
       d="M 100,102.5 C 100,109.40356 94.403559,115 87.5,115 80.596441,115 75,109.40356 75,102.5 75,95.596441 80.596441,90 87.5,90 c 6.897952,0 12.492067,5.587692 12.499992,12.48564 L 87.5,102.5 z"
       sodipodi:start="0"
       sodipodi:end="6.2820364"
       transform="translate(275.17242,71.920258)" />
  </g>
  <g
     inkscape:groupmode="layer"
     id="layer4"
     inkscape:label="Layer"
     transform="translate(-66.999992,-104.99998)">
    <path
       sodipodi:type="arc"
       style="fill:#000000;fill-opacity:1;stroke:#000000;stroke-width:3;stroke-linecap:round;stroke-linejoin:round;stroke-miterlimit:4;stroke-opacity:1;stroke-dasharray:none;stroke-dashoffset:0"
       id="path4285"
       sodipodi:cx="87.5"
       sodipodi:cy="102.5"
       sodipodi:rx="12.5"
       sodipodi:ry="12.5"
       d="M 100,102.5 C 100,109.40356 94.403559,115 87.5,115 80.596441,115 75,109.40356 75,102.5 75,95.596441 80.596441,90 87.5,90 c 6.897952,0 12.492067,5.587692 12.499992,12.48564 L 87.5,102.5 z"
       sodipodi:start="0"
       sodipodi:end="6.2820364"
       transform="translate(5.9999943,26.499986)" />
    <path
       sodipodi:type="arc"
       style="fill:#000000;fill-opacity:1;stroke:#000000;stroke-width:3;stroke-linecap:round;stroke-linejoin:round;stroke-miterlimit:4;stroke-opacity:1;stroke-dasharray:none;stroke-dashoffset:0"
       id="path4285-6"
       sodipodi:cx="87.5"
       sodipodi:cy="102.5"
       sodipodi:rx="12.5"
       sodipodi:ry="12.5"
       d="M 100,102.5 C 100,109.40356 94.403559,115 87.5,115 80.596441,115 75,109.40356 75,102.5 75,95.596441 80.596441,90 87.5,90 c 6.897952,0 12.492067,5.587692 12.499992,12.48564 L 87.5,102.5 z"
       sodipodi:start="0"
       sodipodi:end="6.2820364"
       transform="translate(165.99999,26.499986)" />
    <path
       sodipodi:type="arc"
       style="fill:#000000;fill-opacity:1;stroke:#000000;stroke-width:3;stroke-linecap:round;stroke-linejoin:round;stroke-miterlimit:4;stroke-opacity:1;stroke-dasharray:none;stroke-dashoffset:0"
       id="path4285-6-1"
       sodipodi:cx="87.5"
       sodipodi:cy="102.5"
       sodipodi:rx="12.5"
       sodipodi:ry="12.5"
       d="M 100,102.5 C 100,109.40356 94.403559,115 87.5,115 80.596441,115 75,109.40356 75,102.5 75,95.596441 80.596441,90 87.5,90 c 6.897952,0 12.492067,5.587692 12.499992,12.48564 L 87.5,102.5 z"
       sodipodi:start="0"
       sodipodi:end="6.2820364"
       transform="translate(115.99999,71.499986)" />
    <path
       sodipodi:type="arc"
       style="fill:#000000;fill-opacity:1;stroke:#000000;stroke-width:3;stroke-linecap:round;stroke-linejoin:round;stroke-miterlimit:4;stroke-opacity:1;stroke-dasharray:none;stroke-dashoffset:0"
       id="path4285-6-2"
       sodipodi:cx="87.5"
       sodipodi:cy="102.5"
       sodipodi:rx="12.5"
       sodipodi:ry="12.5"
       d="M 100,102.5 C 100,109.40356 94.403559,115 87.5,115 80.596441,115 75,109.40356 75,102.5 75,95.596441 80.596441,90 87.5,90 c 6.897952,0 12.492067,5.587692 12.499992,12.48564 L 87.5,102.5 z"
       sodipodi:start="0"
       sodipodi:end="6.2820364"
       transform="translate(386.00001,26.499986)" />
    <path
       sodipodi:type="arc"
       style="fill:#000000;fill-opacity:1;stroke:#000000;stroke-width:3;stroke-linecap:round;stroke-linejoin:round;stroke-miterlimit:4;stroke-opacity:1;stroke-dasharray:none;stroke-dashoffset:0"
       id="path4285-6-2-1"
       sodipodi:cx="87.5"
       sodipodi:cy="102.5"
       sodipodi:rx="12.5"
       sodipodi:ry="12.5"
       d="M 100,102.5 C 100,109.40356 94.403559,115 87.5,115 80.596441,115 75,109.40356 75,102.5 75,95.596441 80.596441,90 87.5,90 c 6.897952,0 12.492067,5.587692 12.499992,12.48564 L 87.5,102.5 z"
       sodipodi:start="0"
       sodipodi:end="6.2820364"
       transform="translate(386,71.499985)" />
    <path
       sodipodi:type="arc"
       style="fill:#000000;fill-opacity:1;stroke:#000000;stroke-width:3;stroke-linecap:round;stroke-linejoin:round;stroke-miterlimit:4;stroke-opacity:1;stroke-dasharray:none;stroke-dashoffset:0"
       id="path4285-6-2-1-4"
       sodipodi:cx="87.5"
       sodipodi:cy="102.5"
       sodipodi:rx="12.5"
       sodipodi:ry="12.5"
       d="M 100,102.5 C 100,109.40356 94.403559,115 87.5,115 80.596441,115 75,109.40356 75,102.5 75,95.596441 80.596441,90 87.5,90 c 6.897952,0 12.492067,5.587692 12.499992,12.48564 L 87.5,102.5 z"
       sodipodi:start="0"
       sodipodi:end="6.2820364"
       transform="translate(336,71.499985)" />
    <rect
       style="fill:#ffffff;fill-opacity:1;stroke:#000000;stroke-width:3;stroke-linecap:round;stroke-linejoin:round;stroke-miterlimit:4;stroke-opacity:1;stroke-dasharray:none;stroke-dashoffset:0"
       id="rect4251-9-5-2"
       width="50"
       height="45"
       x="508.5"
       y="106.49998" />
    <rect
       style="fill:#ffffff;fill-opacity:1;stroke:#000000;stroke-width:3;stroke-linecap:round;stroke-linejoin:round;stroke-miterlimit:4;stroke-opacity:1;stroke-dasharray:none;stroke-dashoffset:0"
       id="rect4251-1-7-4-4"
       width="50"
       height="45"
       x="508.5"
       y="151.49997" />
    <rect
       style="fill:#ffffff;fill-opacity:1;stroke:#000000;stroke-width:3;stroke-linecap:round;stroke-linejoin:round;stroke-miterlimit:4;stroke-opacity:1;stroke-dasharray:none;stroke-dashoffset:0"
       id="rect4251-5-5-4-5"
       width="50"
       height="45"
       x="558.5"
       y="151.49997" />
    <rect
       style="fill:#ffffff;fill-opacity:1;stroke:#000000;stroke-width:3;stroke-linecap:round;stroke-linejoin:round;stroke-miterlimit:4;stroke-opacity:1;stroke-dasharray:none;stroke-dashoffset:0"
       id="rect4251-6-2-3-7"
       width="50"
       height="45"
       x="558.5"
       y="106.49998" />
    <path
       sodipodi:type="arc"
       style="fill:#000000;fill-opacity:1;stroke:#000000;stroke-width:3;stroke-linecap:round;stroke-linejoin:round;stroke-miterlimit:4;stroke-opacity:1;stroke-dasharray:none;stroke-dashoffset:0"
       id="path4285-6-2-0"
       sodipodi:cx="87.5"
       sodipodi:cy="102.5"
       sodipodi:rx="12.5"
       sodipodi:ry="12.5"
       d="M 100,102.5 C 100,109.40356 94.403559,115 87.5,115 80.596441,115 75,109.40356 75,102.5 75,95.596441 80.596441,90 87.5,90 c 6.897952,0 12.492067,5.587692 12.499992,12.48564 L 87.5,102.5 z"
       sodipodi:start="0"
       sodipodi:end="6.2820364"
       transform="translate(496.00002,26.499989)" />
    <path
       sodipodi:type="arc"
       style="fill:#000000;fill-opacity:1;stroke:#000000;stroke-width:3;stroke-linecap:round;stroke-linejoin:round;stroke-miterlimit:4;stroke-opacity:1;stroke-dasharray:none;stroke-dashoffset:0"
       id="path4285-6-2-1-16"
       sodipodi:cx="87.5"
       sodipodi:cy="102.5"
       sodipodi:rx="12.5"
       sodipodi:ry="12.5"
       d="M 100,102.5 C 100,109.40356 94.403559,115 87.5,115 80.596441,115 75,109.40356 75,102.5 75,95.596441 80.596441,90 87.5,90 c 6.897952,0 12.492067,5.587692 12.499992,12.48564 L 87.5,102.5 z"
       sodipodi:start="0"
       sodipodi:end="6.2820364"
       transform="translate(496.00001,71.499995)" />
    <path
       sodipodi:type="arc"
       style="fill:#000000;fill-opacity:1;stroke:#000000;stroke-width:3;stroke-linecap:round;stroke-linejoin:round;stroke-miterlimit:4;stroke-opacity:1;stroke-dasharray:none;stroke-dashoffset:0"
       id="path4285-6-2-1-4-1"
       sodipodi:cx="87.5"
       sodipodi:cy="102.5"
       sodipodi:rx="12.5"
       sodipodi:ry="12.5"
       d="M 100,102.5 C 100,109.40356 94.403559,115 87.5,115 80.596441,115 75,109.40356 75,102.5 75,95.596441 80.596441,90 87.5,90 c 6.897952,0 12.492067,5.587692 12.499992,12.48564 L 87.5,102.5 z"
       sodipodi:start="0"
       sodipodi:end="6.2820364"
       transform="translate(446.00001,71.499995)" />
    <path
       sodipodi:type="arc"
       style="fill:#000000;fill-opacity:1;stroke:#000000;stroke-width:3;stroke-linecap:round;stroke-linejoin:round;stroke-miterlimit:4;stroke-opacity:1;stroke-dasharray:none;stroke-dashoffset:0"
       id="path4285-6-2-1-1"
       sodipodi:cx="87.5"
       sodipodi:cy="102.5"
       sodipodi:rx="12.5"
       sodipodi:ry="12.5"
       d="M 100,102.5 C 100,109.40356 94.403559,115 87.5,115 80.596441,115 75,109.40356 75,102.5 75,95.596441 80.596441,90 87.5,90 c 6.897952,0 12.492067,5.587692 12.499992,12.48564 L 87.5,102.5 z"
       sodipodi:start="0"
       sodipodi:end="6.2820364"
       transform="translate(446.00001,26.49999)" />
  </g>
</svg>
